module template-service

go 1.16

require (
	github.com/golang/protobuf v1.5.2
	github.com/jmoiron/sqlx v1.3.4
	github.com/lib/pq v1.2.0
	github.com/spf13/cast v1.4.1
	go.uber.org/zap v1.19.1
	google.golang.org/grpc v1.42.0
)
